﻿object={
	name="tree_leaf_01_single_generator_1_0"
	clamp_to_water_level=no
	render_under_water=no
	generated_content=yes
	layer="tree_high_layer"
	pdxmesh="tree_leaf_01_single_a_mesh"
	count=117
	transform="613.277588 0.000000 1696.724121 0.000000 0.976418 0.000000 0.215889 0.680986 0.680986 0.680986
602.899231 0.000000 1705.399292 0.000000 0.335715 0.000000 -0.941964 0.740789 0.740789 0.740789
600.944885 0.000000 1685.925903 0.000000 0.348898 0.000000 0.937161 0.602376 0.602376 0.602376
606.863403 0.000000 1691.853149 0.000000 0.892124 0.000000 -0.451791 0.752430 0.752430 0.752430
606.628418 0.000000 1712.260864 0.000000 0.072505 0.000000 0.997368 0.532430 0.532430 0.532430
601.336731 0.000000 1700.324463 0.000000 0.998750 0.000000 -0.049985 0.706292 0.706292 0.706292
605.499573 0.000000 1687.226929 0.000000 0.632787 0.000000 0.774325 0.622613 0.622613 0.622613
609.015991 0.000000 1695.853149 0.000000 0.675142 0.000000 -0.737688 0.721748 0.721748 0.721748
620.470581 0.000000 1726.359131 0.000000 0.501517 0.000000 -0.865148 0.732886 0.732886 0.732886
606.025269 0.000000 1703.166260 0.000000 0.172410 0.000000 0.985025 0.621847 0.621847 0.621847
598.148010 0.000000 1699.861938 0.000000 0.958887 0.000000 0.283788 0.675360 0.675360 0.675360
623.637878 0.000000 1725.794922 0.000000 0.371890 0.000000 -0.928277 0.841385 0.841385 0.841385
600.759399 0.000000 1697.264893 0.000000 0.951563 0.000000 -0.307454 0.717477 0.717477 0.717477
615.360046 0.000000 1700.150635 0.000000 0.253548 0.000000 -0.967323 0.828638 0.828638 0.828638
598.174866 0.000000 1686.795532 0.000000 0.999437 0.000000 0.033538 0.696717 0.696717 0.696717
604.223511 0.000000 1700.925049 0.000000 0.731268 0.000000 -0.682090 0.765588 0.765588 0.765588
604.637146 0.000000 1689.894653 0.000000 0.554486 0.000000 -0.832193 0.844309 0.844309 0.844309
601.455505 0.000000 1703.074951 0.000000 0.917223 0.000000 0.398374 0.674222 0.674222 0.674222
602.880310 0.000000 1687.840576 0.000000 0.273522 0.000000 0.961866 0.598258 0.598258 0.598258
611.469727 0.000000 1694.837280 0.000000 0.529858 0.000000 -0.848086 0.813228 0.813228 0.813228
605.445251 0.000000 1705.516357 0.000000 0.341228 0.000000 0.939981 0.618811 0.618811 0.618811
607.414612 0.000000 1710.087280 0.000000 0.883545 0.000000 0.468345 0.651447 0.651447 0.651447
613.436646 0.000000 1699.089478 0.000000 0.854426 0.000000 -0.519573 0.760152 0.760152 0.760152
603.694824 0.000000 1703.055908 0.000000 0.999137 0.000000 0.041530 0.693466 0.693466 0.693466
614.001648 0.000000 1701.756592 0.000000 0.696354 0.000000 -0.717699 0.778340 0.778340 0.778340
610.848572 0.000000 1696.764771 0.000000 0.271136 0.000000 0.962541 0.575411 0.575411 0.575411
604.570251 0.000000 1711.907959 0.000000 0.590623 0.000000 -0.806947 0.780405 0.780405 0.780405
599.892883 0.000000 1699.127197 0.000000 0.731001 0.000000 -0.682376 0.764310 0.764310 0.764310
602.093506 0.000000 1689.638794 0.000000 0.029774 0.000000 -0.999557 0.853504 0.853504 0.853504
602.627991 0.000000 1701.662598 0.000000 0.530102 0.000000 -0.847934 0.836189 0.836189 0.836189
599.354919 0.000000 1685.290039 0.000000 0.498005 0.000000 -0.867174 0.817382 0.817382 0.817382
614.989075 0.000000 1698.577515 0.000000 0.278584 0.000000 0.960412 0.555890 0.555890 0.555890
604.358521 0.000000 1688.240723 0.000000 0.189464 0.000000 -0.981888 0.902606 0.902606 0.902606
624.207764 0.000000 1749.521484 0.000000 0.963963 0.000000 0.266036 0.691059 0.691059 0.691059
631.301331 0.000000 1748.104370 0.000000 0.931831 0.000000 0.362893 0.658464 0.658464 0.658464
622.502563 0.000000 1744.908936 0.000000 0.895978 0.000000 0.444098 0.678287 0.678287 0.678287
630.625610 0.000000 1738.841919 0.000000 0.335583 0.000000 -0.942011 0.961938 0.961938 0.961938
626.983765 0.000000 1746.307739 0.000000 0.976976 0.000000 0.213350 0.690231 0.690231 0.690231
627.149109 0.000000 1731.027344 0.000000 0.106026 0.000000 -0.994363 0.758868 0.758868 0.758868
614.803650 0.000000 1736.438354 0.000000 0.724941 0.000000 0.688811 0.567210 0.567210 0.567210
620.245544 0.000000 1727.731079 0.000000 0.925713 0.000000 0.378227 0.687799 0.687799 0.687799
624.986450 0.000000 1733.330078 0.000000 0.970213 0.000000 0.242254 0.674343 0.674343 0.674343
631.160156 0.000000 1751.359375 0.000000 0.503821 0.000000 0.863808 0.645330 0.645330 0.645330
624.317444 0.000000 1746.895752 0.000000 0.986427 0.000000 0.164201 0.681551 0.681551 0.681551
626.077942 0.000000 1735.507690 0.000000 0.933025 0.000000 0.359812 0.673628 0.673628 0.673628
630.262817 0.000000 1736.600220 0.000000 0.822588 0.000000 -0.568637 0.762364 0.762364 0.762364
627.148743 0.000000 1733.323975 0.000000 0.310933 0.000000 0.950432 0.559676 0.559676 0.559676
616.503662 0.000000 1737.550171 0.000000 0.821644 0.000000 -0.570001 0.822951 0.822951 0.822951
632.431213 0.000000 1749.766968 0.000000 0.025343 0.000000 -0.999679 0.862048 0.862048 0.862048
630.044434 0.000000 1749.625000 0.000000 0.633116 0.000000 0.774057 0.600992 0.600992 0.600992
631.889099 0.000000 1737.567383 0.000000 0.876975 0.000000 0.480536 0.648316 0.648316 0.648316
617.767273 0.000000 1736.576782 0.000000 0.778963 0.000000 0.627070 0.562599 0.562599 0.562599
631.607849 0.000000 1739.855347 0.000000 0.882542 0.000000 0.470234 0.595624 0.595624 0.595624
616.053345 0.000000 1736.410034 0.000000 0.821220 0.000000 0.570612 0.576898 0.576898 0.576898
685.137573 0.000000 1763.967651 0.000000 0.717704 0.000000 0.696349 0.644807 0.644807 0.644807
696.615906 0.000000 1767.174316 0.000000 0.823206 0.000000 0.567743 0.693669 0.693669 0.693669
660.702087 0.000000 1745.421631 0.000000 0.206964 0.000000 -0.978349 0.935697 0.935697 0.935697
699.362549 0.000000 1766.198853 0.000000 0.764509 0.000000 -0.644613 0.807731 0.807731 0.807731
687.115051 0.000000 1760.695313 0.000000 0.998994 0.000000 0.044844 0.697413 0.697413 0.697413
663.044495 0.000000 1744.366821 0.000000 0.916873 0.000000 -0.399179 0.748797 0.748797 0.748797
703.151672 0.000000 1759.174194 0.000000 0.563036 0.000000 0.826433 0.519805 0.519805 0.519805
676.670654 0.000000 1749.226440 0.000000 0.129257 0.000000 0.991611 0.271842 0.271842 0.271842
686.630066 0.000000 1762.628540 0.000000 0.992484 0.000000 -0.122376 0.728944 0.728944 0.728944
699.517090 0.000000 1764.343750 0.000000 0.087106 0.000000 -0.996199 1.005936 1.005936 1.005936
662.319275 0.000000 1745.999878 0.000000 0.341599 0.000000 0.939846 0.554762 0.554762 0.554762
698.324402 0.000000 1767.690063 0.000000 0.219524 0.000000 0.975607 0.492469 0.492469 0.492469
703.293823 0.000000 1756.418579 0.000000 0.816775 0.000000 -0.576956 0.780607 0.780607 0.780607
677.117371 0.000000 1759.062500 0.000000 0.659405 0.000000 -0.751788 0.804075 0.804075 0.804075
660.143188 0.000000 1744.209717 0.000000 0.860267 0.000000 0.509844 0.607439 0.607439 0.607439
661.735229 0.000000 1744.586792 0.000000 0.999994 0.000000 -0.003389 0.700586 0.700586 0.700586
698.209717 0.000000 1764.115845 0.000000 0.999920 0.000000 -0.012668 0.702612 0.702612 0.702612
676.770203 0.000000 1748.014038 0.000000 0.101531 0.000000 0.994832 0.263549 0.263549 0.263549
687.799316 0.000000 1762.346802 0.000000 0.947603 0.000000 -0.319451 0.776711 0.776711 0.776711
698.698181 0.000000 1765.180786 0.000000 0.441322 0.000000 0.897349 0.470333 0.470333 0.470333
677.614746 0.000000 1748.853149 0.000000 0.985125 0.000000 -0.171841 0.751307 0.751307 0.751307
703.988831 0.000000 1758.653564 0.000000 0.225302 0.000000 0.974289 0.451117 0.451117 0.451117
756.587524 0.000000 2349.756836 0.000000 0.612359 0.000000 0.790580 0.684066 0.684066 0.684066
757.548584 0.000000 2342.690186 0.000000 0.991125 0.000000 0.132935 0.694874 0.694874 0.694874
754.687134 0.000000 2342.637695 0.000000 0.687050 0.000000 0.726610 0.654514 0.654514 0.654514
619.731445 0.000000 2919.375488 0.000000 0.060624 0.000000 0.998161 0.581241 0.581241 0.581241
618.346985 0.000000 2916.630859 0.000000 0.999999 0.000000 0.001517 0.699897 0.699897 0.699897
621.518066 0.000000 2917.986572 0.000000 0.605290 0.000000 0.796005 0.571285 0.571285 0.571285
1915.571167 0.000000 2302.618652 0.000000 0.917755 0.000000 -0.397147 0.724980 0.724980 0.724980
1948.269775 0.000000 2238.442139 0.000000 0.939055 0.000000 -0.343767 0.714105 0.714105 0.714105
2005.260254 0.000000 2201.732910 0.000000 0.886999 0.000000 0.461770 0.666447 0.666447 0.666447
2009.947144 0.000000 2203.308105 0.000000 0.912709 0.000000 0.408609 0.662484 0.662484 0.662484
2021.044556 0.000000 2204.508545 0.000000 0.968241 0.000000 -0.250018 0.715898 0.715898 0.715898
2027.559570 0.000000 2215.547363 0.000000 0.123072 0.000000 -0.992398 0.844180 0.844180 0.844180
2026.175049 0.000000 2212.802734 0.000000 0.948035 0.000000 -0.318166 0.716410 0.716410 0.716410
2016.324219 0.000000 2211.585205 0.000000 0.142777 0.000000 -0.989755 0.834715 0.834715 0.834715
2006.530151 0.000000 2200.426514 0.000000 0.548446 0.000000 0.836186 0.585779 0.585779 0.585779
2024.244141 0.000000 2213.299072 0.000000 0.956732 0.000000 0.290972 0.665947 0.665947 0.665947
2006.837891 0.000000 2201.987549 0.000000 0.997494 0.000000 0.070753 0.691832 0.691832 0.691832
1941.339966 0.000000 2239.807129 0.000000 0.711966 0.000000 -0.702213 0.732652 0.732652 0.732652
1981.035522 0.000000 2275.604980 0.000000 0.927016 0.000000 0.375021 0.655661 0.655661 0.655661
1978.387207 0.000000 2274.646729 0.000000 0.799694 0.000000 0.600408 0.667362 0.667362 0.667362
1947.161987 0.000000 2239.573975 0.000000 0.691724 0.000000 -0.722162 0.777559 0.777559 0.777559
2014.691528 0.000000 2267.712402 0.000000 0.823674 0.000000 -0.567063 0.704215 0.704215 0.704215
2009.164917 0.000000 2276.183838 0.000000 0.711156 0.000000 -0.703035 0.735425 0.735425 0.735425
2011.326294 0.000000 2271.703369 0.000000 0.258617 0.000000 -0.965980 0.816685 0.816685 0.816685
2014.150513 0.000000 2270.773682 0.000000 0.994577 0.000000 0.103999 0.694174 0.694174 0.694174
2015.987549 0.000000 2269.803467 0.000000 0.987210 0.000000 0.159426 0.676496 0.676496 0.676496
1872.214355 0.000000 2348.795654 0.000000 0.145532 0.000000 -0.989354 0.752287 0.752287 0.752287
1917.420776 0.000000 2304.244141 0.000000 0.640590 0.000000 -0.767883 0.756612 0.756612 0.756612
1875.546997 0.000000 2351.775391 0.000000 0.751502 0.000000 -0.659731 0.776803 0.776803 0.776803
1914.150757 0.000000 2305.405762 0.000000 0.788537 0.000000 0.614987 0.661801 0.661801 0.661801
1974.818726 0.000000 2304.189697 0.000000 0.710438 0.000000 0.703760 0.683628 0.683628 0.683628
1975.670532 0.000000 2307.991699 0.000000 0.678746 0.000000 0.734373 0.652437 0.652437 0.652437
2106.304443 0.000000 2233.896973 0.000000 0.713300 0.000000 -0.700859 0.729858 0.729858 0.729858
2106.146973 0.000000 2235.970215 0.000000 0.577648 0.000000 -0.816286 0.786781 0.786781 0.786781
2110.935791 0.000000 2246.355957 0.000000 0.297031 0.000000 -0.954868 0.788722 0.788722 0.788722
2053.637695 0.000000 2247.348389 0.000000 0.968152 0.000000 -0.250362 0.717689 0.717689 0.717689
2111.766846 0.000000 2246.136963 0.000000 0.644462 0.000000 -0.764636 0.760849 0.760849 0.760849
2095.381592 0.000000 2358.973877 0.000000 0.750492 0.000000 0.660879 0.636913 0.636913 0.636913
2090.106934 0.000000 2354.962158 0.000000 0.095649 0.000000 0.995415 0.607203 0.607203 0.607203
2094.340332 0.000000 2360.607666 0.000000 0.939496 0.000000 0.342559 0.671893 0.671893 0.671893
5043.603516 0.000000 1045.479248 0.000000 0.263214 0.000000 0.964737 0.640730 0.640730 0.640730
"}
