﻿noun_immaterial = {
	honor = {
		trigger = {
			NOT = { has_trait = deceitful }
		}
		weight = {
			value = 1000
			if = {
				limit = { has_trait = honest }
				multiply = 3
			}
			if = {
				limit = { has_trait = just }
				multiply = 2
			}
		}
	}
	truth = {
		trigger = {
			NOT = { has_trait = deceitful }
		}
		weight = {
			value = 1000
			if = {
				limit = { has_trait = honest }
				multiply = 3
			}
			if = {
				limit = { has_trait = just }
				multiply = 2
			}
		}
	}
	triumph = {
		trigger = {
			NOT = { has_trait = humble }
		}
		weight = {
			value = 1000
			if = {
				limit = { has_trait = ambitious }
				multiply = 3
			}
		}
	}
	renown = {
		trigger = {
			NOT = { has_trait = humble }
		}
		weight = {
			value = 1000
			if = {
				limit = { has_trait = ambitious }
				multiply = 3
			}
		}
	}
	valor = {
		trigger = {
			NOT = { has_trait = humble }
		}
		weight = {
			value = 1000
			if = {
				limit = { has_trait = brave }
				multiply = 3
			}
		}
	}
	strength = {
		trigger = {
			NOT = { has_trait = humble }
		}
		weight = {
			value = 1000
			if = {
				limit = { has_trait = brave }
				multiply = 3
			}
		}
	}
	courage = {
		trigger = {
			NOT = { has_trait = humble }
		}
		weight = {
			value = 1000
			if = {
				limit = { has_trait = brave }
				multiply = 3
			}
		}
	}
	might = {
		trigger = {
			NOT = { has_trait = humble }
		}
		weight = {
			value = 1000
			if = {
				limit = { has_trait = brave }
				multiply = 3
			}
		}
	}
	boldness = {
		trigger = {
			NOT = { has_trait = shy }
		}
		weight = {
			value = 1000
			if = {
				limit = { has_trait = brave }
				multiply = 3
			}
		}
	}
	victory = {
		trigger = {
			NOT = { has_trait = humble }
		}
		weight = {
			value = 1000
			if = {
				limit = { has_trait = ambitious }
				multiply = 3
			}
		}
	}
	conquest = {
		trigger = {
			NOT = { has_trait = humble }
		}
		weight = {
			value = 1000
			if = {
				limit = { has_trait = ambitious }
				multiply = 3
			}
		}
	}
	wisdom = {
		trigger = {
			NOT = { has_trait = impatient }
		}
		weight = {
			value = 1000
			if = {
				limit = { has_trait = patient }
				multiply = 3
			}
		}
	}
	vigilance = {
		trigger = {
			NOT = { has_trait = impatient }
		}
		weight = {
			value = 1000
			if = {
				limit = { has_trait = paranoid }
				multiply = 3
			}
		}
	}
	peace = {
		trigger = {
			NOT = { has_trait = impatient }
		}
		weight = {
			value = 1000
			if = {
				limit = { has_trait = calm }
				multiply = 3
			}
		}
	}
	friendship = {
		trigger = {
			NOR = {
				has_trait = sadistic
				has_trait = callous
				has_trait = paranoid
			}
		}
		weight = {
			value = 1000
			if = {
				limit = { has_trait = gregarious }
				multiply = 3
			}
		}
	}
	family = {
		trigger = {
			NOR = {
				has_trait = sadistic
				has_trait = callous
			}
		}
		weight = {
			value = 1000
			if = {
				limit = { has_trait = chaste }
				multiply = 3
			}
		}
	}
	union = {
		trigger = {
			NOR = {
				has_trait = sadistic
				has_trait = callous
				has_trait = paranoid
			}
		}
		weight = {
			value = 1000
			if = {
				limit = { has_trait = compassionate }
				multiply = 2
			}
		}
	}
	goodness = {
		trigger = {
			NOT = { has_trait = cynical }
		}
		weight = {
			value = 1000
			if = {
				limit = { has_trait = compassionate }
				multiply = 3
			}
		}
	}
	deception = {
		trigger = {
			OR = {
				has_trait = deceitful
				has_trait = arbitrary
			}
		}
		weight = {
			value = 1000
			if = {
				limit = { has_trait = deceitful }
				multiply = 3
			}
		}
	}
	pleasure = {
		trigger = {
			NOT = { has_trait = chaste }
		}
		weight = {
			value = 1000
			if = {
				limit = { has_trait = lustful }
				multiply = 3
			}
		}
	}
	dread = {
		trigger = {
			OR = {
				has_trait = sadistic
				has_trait = callous
			}
		}
		weight = {
			value = 1000
			if = {
				limit = { has_trait = sadistic }
				multiply = 5
			}
		}
	}
	adversity = {
		trigger = {
			OR = {
				has_trait = sadistic
				has_trait = callous
			}
		}
		weight = {
			value = 1000
			if = {
				limit = { has_trait = stubborn }
				multiply = 3
			}
		}
	}
	bribery = {
		trigger = {
			has_trait = deceitful
		}
		weight = {
			value = 1000
			if = {
				limit = { has_trait = greedy }
				multiply = 3
			}
		}
	}
	fear = {
		trigger = {
			OR = {
				has_trait = sadistic
				has_trait = callous
			}
		}
		weight = {
			value = 1000
			if = {
				limit = { has_trait = sadistic }
				multiply = 3
			}
		}
	}
	delight = {
		trigger = {
			has_trait = lustful
		}
		weight = {
			value = 1000
			if = {
				limit = { has_trait = lustful }
				multiply = 3
			}
		}
	}
	death = {
		trigger = {
			OR = {
				has_trait = sadistic
				has_trait = callous
			}
		}
		weight = {
			value = 1000
			if = {
				limit = { has_trait = sadistic }
				multiply = 3
			}
		}
	}
	perseverance = {
		trigger = {
			NOT = { has_trait = lazy }
		}
		weight = {
			value = 1000
			if = {
				limit = { has_trait = diligent }
				multiply = 3
			}
		}
		weight = {
			value = 1000
			if = {
				limit = { has_trait = stubborn }
				multiply = 3
			}
		}
	}
	faith = {
		trigger = {
			NOT = { has_trait = cynical }
		}
		weight = {
			value = 1000
			if = {
				limit = { has_trait = zealous }
				multiply = 3
			}
		}
	}
	salvation = {
		trigger = {
			NOT = { has_trait = cynical }
		}
		weight = {
			value = 1000
			if = {
				limit = { has_trait = zealous }
				multiply = 3
			}
		}
	}
	trust = {
		trigger = {
			NOT = { has_trait = paranoid }
		}
		weight = {
			value = 1000
			if = {
				limit = { has_trait = trusting }
				multiply = 3
			}
		}
	}
	piety = {
		trigger = {
			NOT = { has_trait = cynical }
		}
		weight = {
			value = 1000
			if = {
				limit = { has_trait = zealous }
				multiply = 3
			}
		}
	}
	devotion = {
		trigger = {
			NOT = { has_trait = cynical }
		}
		weight = {
			value = 1000
			if = {
				limit = { has_trait = zealous }
				multiply = 3
			}
		}
	}
	forgiveness = {
		trigger = {
			NOT = { has_trait = vengeful }
		}
		weight = {
			value = 1000
			if = {
				limit = { has_trait = forgiving }
				multiply = 3
			}
		}
	}
	innocence = {
		trigger = {
			NOT = { has_trait = cynical }
		}
		weight = {
			value = 1000
			if = {
				limit = { has_trait = shy }
				multiply = 3
			}
		}
		weight = {
			value = 1000
			if = {
				limit = { has_trait = calm }
				multiply = 3
			}
		}
	}
	learning = {
		trigger = {
			NOT = { has_trait = wrathful }
		}
		weight = {
			value = 1000
			if = {
				limit = { learning = 20 }
				multiply = 3
			}
		}
	}
	prayer = {
		trigger = {
			NOT = { has_trait = cynical }
		}
		weight = {
			value = 1000
			if = {
				limit = { has_trait = humble }
				multiply = 3
			}
		}
	}
	hope = {
		trigger = {
			NOT = { has_trait = cynical }
		}
		weight = {
			value = 1000
			if = {
				limit = { has_trait = content }
				multiply = 3
			}
			if = {
				limit = { has_trait = trusting }
				multiply = 2
			}
		}
	}
	love = {
		trigger = {
			NOR = {
				has_trait = paranoid
				has_trait = ambitious
			}
		}
		weight = {
			value = 1000
			if = {
				limit = { has_trait = content }
				multiply = 3
			}
			if = {
				limit = { has_trait = trusting }
				multiply = 2
			}
		}
	}
	safety = {
		trigger = {
			NOT = { has_trait = trusting }
		}
		weight = {
			value = 1000
			if = {
				limit = { has_trait = vengeful }
				multiply = 2
			}
		}
	}
	loyalty = {
		trigger = {
			NOT = { has_trait = paranoid }
		}
		weight = {
			value = 1000
			if = {
				limit = { has_trait = trusting }
				multiply = 3
			}
		}
	}
	fidelity = {
		trigger = {
			NOT = { has_trait = lustful }
		}
		weight = {
			value = 1000
			if = {
				limit = { has_trait = chaste }
				multiply = 3
			}
		}
	}
	nobility = {
		trigger = {
			NOT = { has_trait = humble }
		}
		weight = {
			value = 1000
			if = {
				limit = { has_trait = arrogant }
				multiply = 3
			}
		}
	}
	labour = {
		trigger = {
			NOT = { has_trait = lazy }
		}
		weight = {
			value = 1000
			if = {
				limit = { has_trait = diligent }
				multiply = 3
			}
		}
	}
	fortune = {
		trigger = {
			NOT = { has_trait = lazy }
		}
		weight = {
			value = 1000
			if = {
				limit = { has_trait = greedy }
				multiply = 3
			}
		}
	}
	industry = {
		trigger = {
			NOT = { has_trait = lazy }
		}
		weight = {
			value = 1000
			if = {
				limit = { has_trait = diligent }
				multiply = 3
			}
		}
	}
	prosperity = {
		trigger = {
			NOT = { has_trait = lazy }
		}
		weight = {
			value = 1000
			if = {
				limit = { has_trait = diligent }
				multiply = 3
			}
		}
	}
	defence = {
		trigger = {
			has_trait = paranoid
		}
		weight = {
			value = 1000
			if = {
				limit = { has_trait = stubborn }
				multiply = 3
			}
		}
	}
	bravery = {
		trigger = {
			NOT = { has_trait = craven }
		}
		weight = {
			value = 1000
			if = {
				limit = { has_trait = brave }
				multiply = 3
			}
		}
	}
	endurance = {
		trigger = {
			NOR = {
				has_trait = fickle
				has_trait = lazy
			}
		}
		weight = {
			value = 1000
			if = {
				limit = { has_trait = stubborn }
				multiply = 3
			}
			if = {
				limit = { has_trait = diligent }
				multiply = 2
			}
		}
	}
	liberty = {
		trigger = {
			NOT = { has_trait = arbitrary }
		}
		weight = {
			value = 1000
			if = {
				limit = { has_trait = just }
				multiply = 2
			}
		}
	}
	virtue = {
		trigger = {
			num_sinful_traits = 0
		}
		weight = {
			value = 1000
			if = {
				limit = { has_trait = humble }
				multiply = 3
			}
		}
	}
	splendour = {
		trigger = {
			NOT = { has_trait = humble }
		}
		weight = {
			value = 1000
			if = {
				limit = { has_trait = arrogant }
				multiply = 3
			}
		}
	}
	respect = {
		trigger = {
			NOT = { has_trait = humble }
		}
		weight = {
			value = 1000
			if = {
				limit = { has_trait = arrogant }
				multiply = 3
			}
		}
	}
	right = {
		trigger = {
			NOT = { has_trait = humble }
		}
		weight = {
			value = 1000
			if = {
				limit = { has_trait = arrogant }
				multiply = 3
			}
		}
	}
	enlightenment = {
		trigger = {
			always = no
		}
		weight = {
			value = 2500
		}
	}
	compassion = {
		trigger = {
			always = no
		}
		weight = {
			value = 1000
		}
	}
	inspiration = {
		trigger = {
			always = no
		}
		weight = {
			value = 1000
		}
	}
}

adjective_immaterial = {
	honorable = {
		trigger = {
			NOT = { has_trait = deceitful }
		}
		weight = {
			value = 1000
			if = {
				limit = { has_trait = honest }
				multiply = 3
			}
			if = {
				limit = { has_trait = just }
				multiply = 2
			}
		}
	}
	truthful = {
		trigger = {
			NOT = { has_trait = deceitful }
		}
		weight = {
			value = 1000
			if = {
				limit = { has_trait = honest }
				multiply = 3
			}
			if = {
				limit = { has_trait = just }
				multiply = 2
			}
		}
	}
	triumphant = {
		trigger = {
			NOT = { has_trait = humble }
		}
		weight = {
			value = 1000
			if = {
				limit = { has_trait = ambitious }
				multiply = 3
			}
		}
	}
	valorous = {
		trigger = {
			NOT = { has_trait = humble }
		}
		weight = {
			value = 1000
			if = {
				limit = { has_trait = brave }
				multiply = 3
			}
		}
	}
	strong = {
		trigger = {
			NOT = { has_trait = humble }
		}
		weight = {
			value = 1000
			if = {
				limit = { has_trait = brave }
				multiply = 3
			}
		}
	}
	courageous = {
		trigger = {
			NOT = { has_trait = humble }
		}
		weight = {
			value = 1000
			if = {
				limit = { has_trait = brave }
				multiply = 3
			}
		}
	}
	mighty = {
		trigger = {
			NOT = { has_trait = humble }
		}
		weight = {
			value = 1000
			if = {
				limit = { has_trait = brave }
				multiply = 3
			}
		}
	}
	cunning = {
		trigger = {
			NOT = { has_trait = impatient }
		}
		weight = {
			value = 1000
			if = {
				limit = { has_trait = patient }
				multiply = 3
			}
		}
	}
	bold = {
		trigger = {
			NOT = { has_trait = shy }
		}
		weight = {
			value = 1000
			if = {
				limit = { has_trait = brave }
				multiply = 3
			}
		}
	}
	victorious = {
		trigger = {
			NOT = { has_trait = humble }
		}
		weight = {
			value = 1000
			if = {
				limit = { has_trait = ambitious }
				multiply = 3
			}
		}
	}
	wise = {
		trigger = {
			NOT = { has_trait = impatient }
		}
		weight = {
			value = 1000
			if = {
				limit = { has_trait = patient }
				multiply = 3
			}
		}
	}
	vigilant = {
		trigger = {
			NOT = { has_trait = impatient }
		}
		weight = {
			value = 1000
			if = {
				limit = { has_trait = paranoid }
				multiply = 3
			}
		}
	}
	peaceful = {
		trigger = {
			NOT = { has_trait = impatient }
		}
		weight = {
			value = 1000
			if = {
				limit = { has_trait = calm }
				multiply = 3
			}
		}
	}
	good = {
		trigger = {
			NOT = { has_trait = cynical }
		}
		weight = {
			value = 1000
			if = {
				limit = { has_trait = compassionate }
				multiply = 3
			}
		}
	}
	dreadful = {
		trigger = {
			OR = {
				has_trait = sadistic
				has_trait = callous
			}
		}
		weight = {
			value = 1000
			if = {
				limit = { has_trait = sadistic }
				multiply = 5
			}
		}
	}
	persevering = {
		trigger = {
			NOT = { has_trait = lazy }
		}
		weight = {
			value = 1000
			if = {
				limit = { has_trait = diligent }
				multiply = 3
			}
		}
		weight = {
			value = 1000
			if = {
				limit = { has_trait = stubborn }
				multiply = 3
			}
		}
	}
	faithful = {
		trigger = {
			NOT = { has_trait = cynical }
		}
		weight = {
			value = 1000
			if = {
				limit = { has_trait = zealous }
				multiply = 3
			}
		}
	}
	pious = {
		trigger = {
			NOT = { has_trait = cynical }
		}
		weight = {
			value = 1000
			if = {
				limit = { has_trait = zealous }
				multiply = 3
			}
		}
	}
	devoted = {
		trigger = {
			NOT = { has_trait = cynical }
		}
		weight = {
			value = 1000
			if = {
				limit = { has_trait = zealous }
				multiply = 3
			}
		}
	}
	forgiving = {
		trigger = {
			NOT = { has_trait = vengeful }
		}
		weight = {
			value = 1000
			if = {
				limit = { has_trait = forgiving }
				multiply = 3
			}
		}
	}
	learned = {
		trigger = {
			NOT = { has_trait = wrathful }
		}
		weight = {
			value = 1000
			if = {
				limit = { learning = 20 }
				multiply = 3
			}
		}
	}
	loving = {
		trigger = {
			NOR = {
				has_trait = paranoid
				has_trait = ambitious
			}
		}
		weight = {
			value = 1000
			if = {
				limit = { has_trait = content }
				multiply = 3
			}
			if = {
				limit = { has_trait = trusting }
				multiply = 2
			}
		}
	}
	loyal = {
		trigger = {
			NOT = { has_trait = paranoid }
		}
		weight = {
			value = 1000
			if = {
				limit = { has_trait = trusting }
				multiply = 3
			}
		}
	}
	noble = {
		trigger = {
			NOT = { has_trait = humble }
		}
		weight = {
			value = 1000
			if = {
				limit = { has_trait = arrogant }
				multiply = 3
			}
		}
	}
	industrious = {
		trigger = {
			NOT = { has_trait = lazy }
		}
		weight = {
			value = 1000
			if = {
				limit = { has_trait = diligent }
				multiply = 3
			}
		}
	}
	stalwart = {
		trigger = {
			NOT = { has_trait = fickle }
		}
		weight = {
			value = 1000
			if = {
				limit = { has_trait = stubborn }
				multiply = 3
			}
		}
	}
	virtuous = {
		trigger = {
			num_sinful_traits = 0
		}
		weight = {
			value = 1000
			if = {
				limit = { has_trait = humble }
				multiply = 3
			}
		}
	}
	brave = {
		trigger = {
			NOT = { has_trait = craven }
		}
		weight = {
			value = 1000
			if = {
				limit = { has_trait = brave }
				multiply = 3
			}
		}
	}
	calm = {
		trigger = {
			always = no
		}
		weight = {
			value = 1250
			if = {
				limit = { has_trait = calm }
				multiply = 3
			}
		}
	}
}

the_adjective_immaterial = {
	the_honorable = {
		trigger = {
			NOT = { has_trait = deceitful }
		}
		weight = {
			value = 1000
			if = {
				limit = { has_trait = honest }
				multiply = 3
			}
			if = {
				limit = { has_trait = just }
				multiply = 2
			}
		}
	}
	the_truthful = {
		trigger = {
			NOT = { has_trait = deceitful }
		}
		weight = {
			value = 1000
			if = {
				limit = { has_trait = honest }
				multiply = 3
			}
			if = {
				limit = { has_trait = just }
				multiply = 2
			}
		}
	}
	the_triumphant = {
		trigger = {
			NOT = { has_trait = humble }
		}
		weight = {
			value = 1000
			if = {
				limit = { has_trait = ambitious }
				multiply = 3
			}
		}
	}
	the_valorous = {
		trigger = {
			NOT = { has_trait = humble }
		}
		weight = {
			value = 1000
			if = {
				limit = { has_trait = brave }
				multiply = 3
			}
		}
	}
	the_strong = {
		trigger = {
			NOT = { has_trait = humble }
		}
		weight = {
			value = 1000
			if = {
				limit = { has_trait = brave }
				multiply = 3
			}
		}
	}
	the_courageous = {
		trigger = {
			NOT = { has_trait = humble }
		}
		weight = {
			value = 1000
			if = {
				limit = { has_trait = brave }
				multiply = 3
			}
		}
	}
	the_mighty = {
		trigger = {
			NOT = { has_trait = humble }
		}
		weight = {
			value = 1000
			if = {
				limit = { has_trait = brave }
				multiply = 3
			}
		}
	}
	the_cunning = {
		trigger = {
			NOT = { has_trait = impatient }
		}
		weight = {
			value = 1000
			if = {
				limit = { has_trait = patient }
				multiply = 3
			}
		}
	}
	the_bold = {
		trigger = {
			NOT = { has_trait = shy }
		}
		weight = {
			value = 1000
			if = {
				limit = { has_trait = brave }
				multiply = 3
			}
		}
	}
	the_victorious = {
		trigger = {
			NOT = { has_trait = humble }
		}
		weight = {
			value = 1000
			if = {
				limit = { has_trait = ambitious }
				multiply = 3
			}
		}
	}
	the_wise = {
		trigger = {
			NOT = { has_trait = impatient }
		}
		weight = {
			value = 1000
			if = {
				limit = { has_trait = patient }
				multiply = 3
			}
		}
	}
	the_vigilant = {
		trigger = {
			NOT = { has_trait = impatient }
		}
		weight = {
			value = 1000
			if = {
				limit = { has_trait = paranoid }
				multiply = 3
			}
		}
	}
	the_peaceful = {
		trigger = {
			NOT = { has_trait = impatient }
		}
		weight = {
			value = 1000
			if = {
				limit = { has_trait = calm }
				multiply = 3
			}
		}
	}
	the_good = {
		trigger = {
			NOT = { has_trait = cynical }
		}
		weight = {
			value = 1000
			if = {
				limit = { has_trait = compassionate }
				multiply = 3
			}
		}
	}
	the_dreadful = {
		trigger = {
			OR = {
				has_trait = sadistic
				has_trait = callous
			}
		}
		weight = {
			value = 1000
			if = {
				limit = { has_trait = sadistic }
				multiply = 5
			}
		}
	}
	the_persevering = {
		trigger = {
			NOT = { has_trait = lazy }
		}
		weight = {
			value = 1000
			if = {
				limit = { has_trait = diligent }
				multiply = 3
			}
		}
		weight = {
			value = 1000
			if = {
				limit = { has_trait = stubborn }
				multiply = 3
			}
		}
	}
	the_faithful = {
		trigger = {
			NOT = { has_trait = cynical }
		}
		weight = {
			value = 1000
			if = {
				limit = { has_trait = zealous }
				multiply = 3
			}
		}
	}
	the_pious = {
		trigger = {
			NOT = { has_trait = cynical }
		}
		weight = {
			value = 1000
			if = {
				limit = { has_trait = zealous }
				multiply = 3
			}
		}
	}
	the_devoted = {
		trigger = {
			NOT = { has_trait = cynical }
		}
		weight = {
			value = 1000
			if = {
				limit = { has_trait = zealous }
				multiply = 3
			}
		}
	}
	the_forgiving = {
		trigger = {
			NOT = { has_trait = vengeful }
		}
		weight = {
			value = 1000
			if = {
				limit = { has_trait = forgiving }
				multiply = 3
			}
		}
	}
	the_learned = {
		trigger = {
			NOT = { has_trait = wrathful }
		}
		weight = {
			value = 1000
			if = {
				limit = { learning = 20 }
				multiply = 3
			}
		}
	}
	the_loving = {
		trigger = {
			NOR = {
				has_trait = paranoid
				has_trait = ambitious
			}
		}
		weight = {
			value = 1000
			if = {
				limit = { has_trait = content }
				multiply = 3
			}
			if = {
				limit = { has_trait = trusting }
				multiply = 2
			}
		}
	}
	the_loyal = {
		trigger = {
			NOT = { has_trait = paranoid }
		}
		weight = {
			value = 1000
			if = {
				limit = { has_trait = trusting }
				multiply = 3
			}
		}
	}
	the_noble = {
		trigger = {
			NOT = { has_trait = humble }
		}
		weight = {
			value = 1000
			if = {
				limit = { has_trait = arrogant }
				multiply = 3
			}
		}
	}
	the_industrious = {
		trigger = {
			NOT = { has_trait = lazy }
		}
		weight = {
			value = 1000
			if = {
				limit = { has_trait = diligent }
				multiply = 3
			}
		}
	}
	the_stalwart = {
		trigger = {
			NOT = { has_trait = fickle }
		}
		weight = {
			value = 1000
			if = {
				limit = { has_trait = stubborn }
				multiply = 3
			}
		}
	}
	the_virtuous = {
		trigger = {
			num_sinful_traits = 0
		}
		weight = {
			value = 1000
			if = {
				limit = { has_trait = humble }
				multiply = 3
			}
		}
	}
	the_brave = {
		trigger = {
			NOT = { has_trait = craven }
		}
		weight = {
			value = 1000
			if = {
				limit = { has_trait = brave }
				multiply = 3
			}
		}
	}
	the_calm = {
		trigger = {
			always = no
		}
		weight = {
			value = 1250
			if = {
				limit = { has_trait = calm }
				multiply = 3
			}
		}
	}
}

adjective_immaterial_a_or_an = {
	an_honorable = {
		trigger = {
			NOT = { has_trait = deceitful }
		}
		weight = {
			value = 1000
			if = {
				limit = { has_trait = honest }
				multiply = 3
			}
			if = {
				limit = { has_trait = just }
				multiply = 2
			}
		}
	}
	a_truthful = {
		trigger = {
			NOT = { has_trait = deceitful }
		}
		weight = {
			value = 1000
			if = {
				limit = { has_trait = honest }
				multiply = 3
			}
			if = {
				limit = { has_trait = just }
				multiply = 2
			}
		}
	}
	a_triumphant = {
		trigger = {
			NOT = { has_trait = humble }
		}
		weight = {
			value = 1000
			if = {
				limit = { has_trait = ambitious }
				multiply = 3
			}
		}
	}
	a_valorous = {
		trigger = {
			NOT = { has_trait = humble }
		}
		weight = {
			value = 1000
			if = {
				limit = { has_trait = brave }
				multiply = 3
			}
		}
	}
	a_strong = {
		trigger = {
			NOT = { has_trait = humble }
		}
		weight = {
			value = 1000
			if = {
				limit = { has_trait = brave }
				multiply = 3
			}
		}
	}
	a_courageous = {
		trigger = {
			NOT = { has_trait = humble }
		}
		weight = {
			value = 1000
			if = {
				limit = { has_trait = brave }
				multiply = 3
			}
		}
	}
	a_mighty = {
		trigger = {
			NOT = { has_trait = humble }
		}
		weight = {
			value = 1000
			if = {
				limit = { has_trait = brave }
				multiply = 3
			}
		}
	}
	a_cunning = {
		trigger = {
			NOT = { has_trait = impatient }
		}
		weight = {
			value = 1000
			if = {
				limit = { has_trait = patient }
				multiply = 3
			}
		}
	}
	a_bold = {
		trigger = {
			NOT = { has_trait = shy }
		}
		weight = {
			value = 1000
			if = {
				limit = { has_trait = brave }
				multiply = 3
			}
		}
	}
	a_victorious = {
		trigger = {
			NOT = { has_trait = humble }
		}
		weight = {
			value = 1000
			if = {
				limit = { has_trait = ambitious }
				multiply = 3
			}
		}
	}
	a_wise = {
		trigger = {
			NOT = { has_trait = impatient }
		}
		weight = {
			value = 1000
			if = {
				limit = { has_trait = patient }
				multiply = 3
			}
		}
	}
	a_vigilant = {
		trigger = {
			NOT = { has_trait = impatient }
		}
		weight = {
			value = 1000
			if = {
				limit = { has_trait = paranoid }
				multiply = 3
			}
		}
	}
	a_peaceful = {
		trigger = {
			NOT = { has_trait = impatient }
		}
		weight = {
			value = 1000
			if = {
				limit = { has_trait = calm }
				multiply = 3
			}
		}
	}
	a_good = {
		trigger = {
			NOT = { has_trait = cynical }
		}
		weight = {
			value = 1000
			if = {
				limit = { has_trait = compassionate }
				multiply = 3
			}
		}
	}
	a_dreadful = {
		trigger = {
			OR = {
				has_trait = sadistic
				has_trait = callous
			}
		}
		weight = {
			value = 1000
			if = {
				limit = { has_trait = sadistic }
				multiply = 5
			}
		}
	}
	a_persevering = {
		trigger = {
			NOT = { has_trait = lazy }
		}
		weight = {
			value = 1000
			if = {
				limit = { has_trait = diligent }
				multiply = 3
			}
		}
		weight = {
			value = 1000
			if = {
				limit = { has_trait = stubborn }
				multiply = 3
			}
		}
	}
	a_faithful = {
		trigger = {
			NOT = { has_trait = cynical }
		}
		weight = {
			value = 1000
			if = {
				limit = { has_trait = zealous }
				multiply = 3
			}
		}
	}
	a_pious = {
		trigger = {
			NOT = { has_trait = cynical }
		}
		weight = {
			value = 1000
			if = {
				limit = { has_trait = zealous }
				multiply = 3
			}
		}
	}
	a_devoted = {
		trigger = {
			NOT = { has_trait = cynical }
		}
		weight = {
			value = 1000
			if = {
				limit = { has_trait = zealous }
				multiply = 3
			}
		}
	}
	a_forgiving = {
		trigger = {
			NOT = { has_trait = vengeful }
		}
		weight = {
			value = 1000
			if = {
				limit = { has_trait = forgiving }
				multiply = 3
			}
		}
	}
	a_learned = {
		trigger = {
			NOT = { has_trait = wrathful }
		}
		weight = {
			value = 1000
			if = {
				limit = { learning = 20 }
				multiply = 3
			}
		}
	}
	a_loving = {
		trigger = {
			NOR = {
				has_trait = paranoid
				has_trait = ambitious
			}
		}
		weight = {
			value = 1000
			if = {
				limit = { has_trait = content }
				multiply = 3
			}
			if = {
				limit = { has_trait = trusting }
				multiply = 2
			}
		}
	}
	a_loyal = {
		trigger = {
			NOT = { has_trait = paranoid }
		}
		weight = {
			value = 1000
			if = {
				limit = { has_trait = trusting }
				multiply = 3
			}
		}
	}
	a_noble = {
		trigger = {
			NOT = { has_trait = humble }
		}
		weight = {
			value = 1000
			if = {
				limit = { has_trait = arrogant }
				multiply = 3
			}
		}
	}
	an_industrious = {
		trigger = {
			NOT = { has_trait = lazy }
		}
		weight = {
			value = 1000
			if = {
				limit = { has_trait = diligent }
				multiply = 3
			}
		}
	}
	a_stalwart = {
		trigger = {
			NOT = { has_trait = fickle }
		}
		weight = {
			value = 1000
			if = {
				limit = { has_trait = stubborn }
				multiply = 3
			}
		}
	}
	a_virtuous = {
		trigger = {
			num_sinful_traits = 0
		}
		weight = {
			value = 1000
			if = {
				limit = { has_trait = humble }
				multiply = 3
			}
		}
	}
	a_brave = {
		trigger = {
			NOT = { has_trait = craven }
		}
		weight = {
			value = 1000
			if = {
				limit = { has_trait = brave }
				multiply = 3
			}
		}
	}
	a_calm = {
		trigger = {
			always = no
		}
		weight = {
			value = 1250
			if = {
				limit = { has_trait = calm }
				multiply = 3
			}
		}
	}
}

noble_act = {
	defend = {
	}
	protect = {
	}
	avenge = {
	}
	help = {
	}
	keep = {
	}
	watch_over = {
	}
	shield = {
	}
	guard = {
	}
	bless = {
	}
	aid = {
	}
	assist = {
	}
	befriend = {
	}
	champion = {
	}
	govern = {
	}
	guide = {
	}
	heal = {
	}
	inspire = {
	}
	rule = {
	}
	stand_by = {
	}
	support = {
	}
	teach = {
	}
	command = {
	}
	sway = {
	}
	repay = {
	}
	respect_verb = {
	}
	honor_verb = {
	}
	serve = {
	}
	will = {
	}
	trust_verb = {
	}
	prepare = {
	}
}

weapon = {
	sword_word = {
		weight = {
			value = 3000
			if = {
				limit = { NOT = { has_government = tribal_government } }
				multiply = 5
			}
		}
	}
	axe = {
		weight = {
			value = 3000
			if = {
				limit = { has_government = tribal_government }
				multiply = 5
			}
		}
	}
	spear = {
		weight = {
			value = 3000
		}
	}
	hammer = {
		weight = {
			value = 3000
		}
	}
	bow = {
		weight = {
			value = 3000
		}
	}
	lance = {
		weight = {
			value = 1000
			if = {
				limit = { NOT = { has_government = tribal_government } }
				multiply = 3
			}
		}
	}
}

the_weapon = {
	the_sword_word = {
		weight = {
			value = 3000
			if = {
				limit = { NOT = { has_government = tribal_government } }
				multiply = 5
			}
		}
	}
	the_axe = {
		weight = {
			value = 3000
			if = {
				limit = { has_government = tribal_government }
				multiply = 5
			}
		}
	}
	the_spear = {
		weight = {
			value = 3000
		}
	}
	the_hammer = {
		weight = {
			value = 3000
		}
	}
	the_bow = {
		weight = {
			value = 3000
		}
	}
	the_lance = {
		weight = {
			value = 1000
			if = {
				limit = { NOT = { has_government = tribal_government } }
				multiply = 3
			}
		}
	}
	the_pen = {
		trigger = {
			OR = {
				learning = 8
				has_trait = scholar
			}
		}
		weight = {
			value = 1000
			if = {
				limit = { has_government = tribal_government }
				multiply = 0.25
			}
		}
	}
}

creature = {
	wolf = {
	}
	bear = {
	}
	eagle = {
	}
	ox = {
	}
	unicorn = {
	}
	dragon = {
	}
	boar = {
	}
	giant_snail = {
		trigger = {
			has_trait = lunatic
		}
	}
	lion = {
	}
	fox = {
	}
	tiger = {
	}
	elephant = {
	}
	hound = {
	}
	horse = {
	}
	leopard = {
	}
	gazelle = {
	}
	hippopotamus = {
	}
	reindeer = {
	}
}

the_creature = {
	the_wolf = {
	}
	the_bear = {
	}
	the_eagle = {
	}
	the_ox = {
	}
	the_unicorn = {
	}
	the_dragon = {
	}
	the_boar = {
	}
	the_giant_snail = {
		trigger = {
			has_trait = lunatic
		}
	}
	the_lion = {
	}
	the_fox = {
	}
	the_tiger = {
	}
	the_elephant = {
	}
	the_hound = {
	}
	the_horse = {
	}
	the_leopard = {
	}
	the_hippopotamus = {
	}
	the_reindeer = {
	}
}

annoying_action_verb = {
	irritate = {
	}
	irk = {
	}
	vex = {
	}
	bother = {
	}
	rile = {
	}
	pester = {
	}
	challenge = {
	}
	defy = {
	}
	mock = {
	}
	face = {
	}
}

negative_noun = {
	envy = {
		trigger = {
			NOT = { has_trait = impatient }
		}
	}
	fear = {
		trigger = {
		}
	}
	doubt = {
		trigger = {
			NOT = { has_trait = cynical }
		}
	}
	malice = {
		trigger = {
			NOT = { has_trait = sadistic }
		}
	}
	wanting = {
		trigger = {
			NOT = { has_trait = lustful }
		}
	}
	cruelty = {
		trigger = {
			NOT = { has_trait = callous }
		}
	}
	greed = {
		trigger = {
			NOT = { has_trait = greedy }
		}
	}
	wrath = {
		trigger = {
			NOT = { has_trait = wrathful }
		}
	}
}

negative_adjective = {
	envious = {
		trigger = {
			NOT = { has_trait = impatient }
		}
	}
	fearful = {
		trigger = {
		}
	}
	doubtful = {
		trigger = {
			NOT = { has_trait = cynical }
		}
	}
	malicious = {
		trigger = {
			NOT = { has_trait = sadistic }
		}
	}
	wanting_adjective = {
		trigger = {
			NOT = { has_trait = lustful }
		}
	}
	cruel = {
		trigger = {
			NOT = { has_trait = callous }
		}
	}
	greedy = {
		trigger = {
			NOT = { has_trait = greedy }
		}
	}
	wrathful = {
		trigger = {
			NOT = { has_trait = wrathful }
		}
	}
}

various_godly_things_list = {
	christ_protects_us = {
	}
	christs_promises = {
	}
	suffer_by_god = {
	}
	not_vain = {
	}
	all_through_god = {
	}
	eartly_realm = {
	}
	praise_be_to_god = {
	}
	cross_salvation = {
	}
	salvation_through_christ = {
	}
	help_o_god = {
	}
	sing_of_heavenly_things = {
	}
}

unique_pool_list = {
	thus_should_law_be_followed = {
	}
	from_near_and_far = {
	}
	above_all = {
	}
	childhood_games = {
	}
	take_up_arms = {
	}
	ancestors = {
	}
	teaching = {
	}
	eagle_fly = {
	}
	nothing_scares = {
	}
	one_after_another = {
	}
	go_and_die = {
	}
	mourn_rejoice = {
	}
	trust_them = {
	}
	disarmed_man = {
	}
	drink_your_blood = {
	}
	from_great_men = {
	}
	this_sigil = {
	}
	from_all_my_heart = {
	}
	regret_past = {
	}
	do_what_you_must = {
	}
	good_life = {
	}
	more_than_silver = {
	}
	without_fear = {
	}
	break_bend = {
	}
	always_a_house = {
	}
	firm_as_horn = {
	}
	i_die_where_my_heart_belongs = {
	}
	iron_gold = {
	}
	hold_fast = {
	}
	handsome_enough = {
	}
}