﻿########## Racial Traits ##########

#Pure Elf
elf = {
	index = 300
	
	fertility = -0.75
	monthly_lifestyle_xp_gain_mult = -0.75

	martial = 1
	intrigue = 1
	stewardship = 1
	learning = 1
	diplomacy = 1
	
	attraction_opinion = 20
	
	vassal_opinion = 15
	same_opinion = 20
	
	inherit_chance = 100
	both_parent_has_trait_inherit_chance = 100
	physical = yes
	
	birth = 0
	random_creation = 0
	
	immortal = yes
	
	genetic_constraint_all = beauty_2
	genetic_constraint_men = male_beauty_2
	genetic_constraint_women = female_beauty_2
	forced_portrait_age_index = 1 # old_beauty_1
	
	icon = {
		first_valid = {
			triggered_desc = {
				trigger = { NOT = { exists = this } }
				desc = consecrated_blood.dds
			}
			desc = consecrated_blood.dds
		}
	}	
	desc = {
		first_valid = {
			triggered_desc = {
				trigger = {
					NOT = { exists = this }
				}
				desc = trait_elf_desc
			}
			desc = trait_elf_character_desc
		}
	}
}

#Half-Elf
half_elf = {
	index = 301
	
	diplomacy = 2

	attraction_opinion = 10
	
	vassal_opinion = 10
	same_opinion = 20
	
	inherit_chance = 100
	both_parent_has_trait_inherit_chance = 100
	physical = yes
	
	birth = 0
	random_creation = 0
	
	genetic_constraint_all = beauty_2
	genetic_constraint_men = male_beauty_2
	genetic_constraint_women = female_beauty_2
	forced_portrait_age_index = 1 # old_beauty_1

	icon = {
		first_valid = {
			triggered_desc = {
				trigger = { NOT = { exists = this } }
				desc = blood_of_prophet.dds
			}
			desc = blood_of_prophet.dds
		}
	}	
	desc = {
		first_valid = {
			triggered_desc = {
				trigger = {
					NOT = { exists = this }
				}
				desc = trait_half_elf_desc
			}
			desc = trait_half_elf_character_desc
		}
	}
}

# #Elf Blooded
# elf_blood = {
	# index = 302
	
	# fertility -0.1
	# learning = 2
	# diplomacy = 2
	
	# attraction_opinion = 10
	
	# vassal_opinion = 5
	# same_opinion = 10
	
	# inherit_chance = 100
	# both_parent_has_trait_inherit_chance = 100
	# physical = yes
	
	# birth = 0
	# random_creation = 0
	
	# icon = {
		# first_valid = {
			# triggered_desc = {
				# trigger = { NOT = { exists = this } }
				# desc = blood_of_the_prophet_parent.dds
			# }
			# desc = blood_of_the_prophet_parent.dds
		# }
	# }	
	# desc = {
		# first_valid = {
			# triggered_desc = {
				# trigger = {
					# NOT = { exists = this }
				# }
				# desc = trait_elf_blood_desc
			# }
			# desc = trait_elf_blood_character_desc
		# }
	# }
# }

#Human
human = {
	index = 303

	same_opinion = 5
	
	inherit_chance = 100
	both_parent_has_trait_inherit_chance = 100
	physical = yes
	
	birth = 0
	random_creation = 0
	
	icon = {
		first_valid = {
			triggered_desc = {
				trigger = { NOT = { exists = this } }
				desc = whole_of_body.dds
			}
			desc = whole_of_body.dds
		}
	}	
	desc = {
		first_valid = {
			triggered_desc = {
				trigger = {
					NOT = { exists = this }
				}
				desc = trait_human_desc
			}
			desc = trait_human_character_desc
		}
	}
}

#Dwarf
anb_dwarf = {
	index = 304
	
	fertility = -0.5
	monthly_lifestyle_xp_gain_mult = -0.5

	stewardship = 1
	prowess = 3

	same_opinion = 10
	
	inherit_chance = 100
	both_parent_has_trait_inherit_chance = 100
	physical = yes
	
	birth = 0
	random_creation = 0
	
	immortal = yes
	
	icon = {
		first_valid = {
			triggered_desc = {
				trigger = { NOT = { exists = this } }
				desc = sea_raider.dds
			}
			desc = sea_raider.dds
		}
	}	
	desc = {
		first_valid = {
			triggered_desc = {
				trigger = {
					NOT = { exists = this }
				}
				desc = trait_anb_dwarf_desc
			}
			desc = trait_anb_dwarf_character_desc
		}
	}
}

#Halfling
halfling = {
	index = 305
	
	fertility = 0.5
	prowess = -3

	same_opinion = 10
	
	inherit_chance = 100
	both_parent_has_trait_inherit_chance = 100
	physical = yes
	
	birth = 0
	random_creation = 0
	
	icon = {
		first_valid = {
			triggered_desc = {
				trigger = { NOT = { exists = this } }
				desc = dwarf.dds
			}
			desc = dwarf.dds
		}
	}	
	desc = {
		first_valid = {
			triggered_desc = {
				trigger = {
					NOT = { exists = this }
				}
				desc = trait_halfling_desc
			}
			desc = trait_halfling_character_desc
		}
	}
}

#Gnome
gnome = {
	index = 306
	
	fertility = -0.66
	monthly_lifestyle_xp_gain_mult = -0.66

	learning = 1
	prowess = -5

	same_opinion = 10
	
	inherit_chance = 100
	both_parent_has_trait_inherit_chance = 100
	physical = yes
	
	birth = 0
	random_creation = 0
	
	immortal = yes
	
	icon = {
		first_valid = {
			triggered_desc = {
				trigger = { NOT = { exists = this } }
				desc = bossy.dds
			}
			desc = bossy.dds
		}
	}	
	desc = {
		first_valid = {
			triggered_desc = {
				trigger = {
					NOT = { exists = this }
				}
				desc = trait_gnome_desc
			}
			desc = trait_gnome_character_desc
		}
	}
}

#Gnomling
gnomling = {
	index = 307
	
	can_have_children = no
	learning = 1
	prowess = -3

	same_opinion = 10
	
	inherit_chance = 100
	both_parent_has_trait_inherit_chance = 100
	physical = yes
	
	birth = 0
	random_creation = 0
	
	icon = {
		first_valid = {
			triggered_desc = {
				trigger = { NOT = { exists = this } }
				desc = bossy.dds
			}
			desc = bossy.dds
		}
	}	
	desc = {
		first_valid = {
			triggered_desc = {
				trigger = {
					NOT = { exists = this }
				}
				desc = trait_gnomling_desc
			}
			desc = trait_gnomling_character_desc
		}
	}
}

#Orc
orc = {
	index = 308
	
	prowess = 5

	same_opinion = 10
	
	inherit_chance = 100
	both_parent_has_trait_inherit_chance = 100
	physical = yes
	
	birth = 0
	random_creation = 0
	
	icon = {
		first_valid = {
			triggered_desc = {
				trigger = { NOT = { exists = this } }
				desc = whole_of_body.dds
			}
			desc = whole_of_body.dds
		}
	}	
	desc = {
		first_valid = {
			triggered_desc = {
				trigger = {
					NOT = { exists = this }
				}
				desc = trait_orc_desc
			}
			desc = trait_orc_character_desc
		}
	}
}

#Half-Orc
half_orc = {
	index = 309
	
	martial = 1
	prowess = 3

	same_opinion = 10
	
	inherit_chance = 100
	both_parent_has_trait_inherit_chance = 100
	physical = yes
	
	birth = 0
	random_creation = 0
	
	icon = {
		first_valid = {
			triggered_desc = {
				trigger = { NOT = { exists = this } }
				desc = whole_of_body.dds
			}
			desc = whole_of_body.dds
		}
	}	
	desc = {
		first_valid = {
			triggered_desc = {
				trigger = {
					NOT = { exists = this }
				}
				desc = trait_half_orc_desc
			}
			desc = trait_half_orc_character_desc
		}
	}
}

#Gnoll
gnoll = {
	index = 310
	
	fertility = 0.25
	prowess = 5

	same_opinion = 10
	
	inherit_chance = 100
	both_parent_has_trait_inherit_chance = 100
	physical = yes
	
	birth = 0
	random_creation = 0
	
	icon = {
		first_valid = {
			triggered_desc = {
				trigger = { NOT = { exists = this } }
				desc = whole_of_body.dds
			}
			desc = whole_of_body.dds
		}
	}	
	desc = {
		first_valid = {
			triggered_desc = {
				trigger = {
					NOT = { exists = this }
				}
				desc = trait_gnoll_desc
			}
			desc = trait_gnoll_character_desc
		}
	}
}

#Kobold
kobold = {
	index = 311
	
	health = -0.5
	fertility = 1
	prowess = -3

	same_opinion = 10
	
	inherit_chance = 100
	both_parent_has_trait_inherit_chance = 100
	physical = yes
	
	birth = 0
	random_creation = 0
	
	icon = {
		first_valid = {
			triggered_desc = {
				trigger = { NOT = { exists = this } }
				desc = whole_of_body.dds
			}
			desc = whole_of_body.dds
		}
	}	
	desc = {
		first_valid = {
			triggered_desc = {
				trigger = {
					NOT = { exists = this }
				}
				desc = trait_kobold_desc
			}
			desc = trait_kobold_character_desc
		}
	}
}

#Troll
troll = {
	index = 312
	
	health = 0.5	#regeneration
	prowess = 10

	same_opinion = 10
	
	inherit_chance = 100
	both_parent_has_trait_inherit_chance = 100
	physical = yes
	
	birth = 0
	random_creation = 0
	
	icon = {
		first_valid = {
			triggered_desc = {
				trigger = { NOT = { exists = this } }
				desc = whole_of_body.dds
			}
			desc = whole_of_body.dds
		}
	}	
	desc = {
		first_valid = {
			triggered_desc = {
				trigger = {
					NOT = { exists = this }
				}
				desc = trait_troll_desc
			}
			desc = trait_troll_character_desc
		}
	}
}

#Trollkin
trollkin = {
	index = 313
	
	can_have_children = no

	health = 0.25	#regeneration
	prowess = 5

	same_opinion = 10
	
	inherit_chance = 100
	both_parent_has_trait_inherit_chance = 100
	physical = yes
	
	birth = 0
	random_creation = 0
	
	icon = {
		first_valid = {
			triggered_desc = {
				trigger = { NOT = { exists = this } }
				desc = whole_of_body.dds
			}
			desc = whole_of_body.dds
		}
	}	
	desc = {
		first_valid = {
			triggered_desc = {
				trigger = {
					NOT = { exists = this }
				}
				desc = trait_trollkin_desc
			}
			desc = trait_trollkin_character_desc
		}
	}
}

#Ogre
ogre = {
	index = 314
	
	prowess = 10

	same_opinion = 10
	
	inherit_chance = 100
	both_parent_has_trait_inherit_chance = 100
	physical = yes
	
	birth = 0
	random_creation = 0
	
	icon = {
		first_valid = {
			triggered_desc = {
				trigger = { NOT = { exists = this } }
				desc = whole_of_body.dds
			}
			desc = whole_of_body.dds
		}
	}	
	desc = {
		first_valid = {
			triggered_desc = {
				trigger = {
					NOT = { exists = this }
				}
				desc = trait_ogre_desc
			}
			desc = trait_ogre_character_desc
		}
	}
}

#Ogrillon
ogrillon = {
	index = 315
	
	fertility = -0.5

	prowess = 7

	same_opinion = 10
	
	inherit_chance = 100
	both_parent_has_trait_inherit_chance = 100
	physical = yes
	
	birth = 0
	random_creation = 0
	
	icon = {
		first_valid = {
			triggered_desc = {
				trigger = { NOT = { exists = this } }
				desc = whole_of_body.dds
			}
			desc = whole_of_body.dds
		}
	}	
	desc = {
		first_valid = {
			triggered_desc = {
				trigger = {
					NOT = { exists = this }
				}
				desc = trait_ogrillon_desc
			}
			desc = trait_ogrillon_character_desc
		}
	}
}

#Goblin
goblin = {
	index = 316
	
	health = -0.25
	fertility = 0.5

	intrigue = 1
	
	prowess = -3

	same_opinion = 10
	
	inherit_chance = 100
	both_parent_has_trait_inherit_chance = 100
	physical = yes
	
	birth = 0
	random_creation = 0
	
	icon = {
		first_valid = {
			triggered_desc = {
				trigger = { NOT = { exists = this } }
				desc = whole_of_body.dds
			}
			desc = whole_of_body.dds
		}
	}	
	desc = {
		first_valid = {
			triggered_desc = {
				trigger = {
					NOT = { exists = this }
				}
				desc = trait_goblin_desc
			}
			desc = trait_goblin_character_desc
		}
	}
}

#Half-goblin
half_goblin = {
	index = 317
	
	can_have_children = no
	intrigue = 1
	prowess = -2

	same_opinion = 10
	
	inherit_chance = 100
	both_parent_has_trait_inherit_chance = 100
	physical = yes
	
	birth = 0
	random_creation = 0
	
	icon = {
		first_valid = {
			triggered_desc = {
				trigger = { NOT = { exists = this } }
				desc = whole_of_body.dds
			}
			desc = whole_of_body.dds
		}
	}	
	desc = {
		first_valid = {
			triggered_desc = {
				trigger = {
					NOT = { exists = this }
				}
				desc = trait_half_goblin_desc
			}
			desc = trait_half_goblin_character_desc
		}
	}
}

#Hobgoblin
hobgoblin = {
	index = 318
	
	martial = 1
	prowess = 7

	same_opinion = 10
	
	inherit_chance = 100
	both_parent_has_trait_inherit_chance = 100
	physical = yes
	
	birth = 0
	random_creation = 0
	
	icon = {
		first_valid = {
			triggered_desc = {
				trigger = { NOT = { exists = this } }
				desc = whole_of_body.dds
			}
			desc = whole_of_body.dds
		}
	}	
	desc = {
		first_valid = {
			triggered_desc = {
				trigger = {
					NOT = { exists = this }
				}
				desc = trait_hobgoblin_desc
			}
			desc = trait_hobgoblin_character_desc
		}
	}
}

#Half-hobgoblin
half_hobgoblin = {
	index = 319
	
	can_have_children = no
	martial = 1
	prowess = 5

	same_opinion = 10
	
	inherit_chance = 100
	both_parent_has_trait_inherit_chance = 100
	physical = yes
	
	birth = 0
	random_creation = 0
	
	icon = {
		first_valid = {
			triggered_desc = {
				trigger = { NOT = { exists = this } }
				desc = whole_of_body.dds
			}
			desc = whole_of_body.dds
		}
	}	
	desc = {
		first_valid = {
			triggered_desc = {
				trigger = {
					NOT = { exists = this }
				}
				desc = trait_half_hobgoblin_desc
			}
			desc = trait_half_hobgoblin_character_desc
		}
	}
}

#Lesser Hobgoblin
lesser_hobgoblin = {
	index = 320
	
	fertility = -0.5
	prowess = 2

	same_opinion = 10
	
	inherit_chance = 100
	both_parent_has_trait_inherit_chance = 100
	physical = yes
	
	birth = 0
	random_creation = 0
	
	icon = {
		first_valid = {
			triggered_desc = {
				trigger = { NOT = { exists = this } }
				desc = whole_of_body.dds
			}
			desc = whole_of_body.dds
		}
	}	
	desc = {
		first_valid = {
			triggered_desc = {
				trigger = {
					NOT = { exists = this }
				}
				desc = trait_lesser_hobgoblin_desc
			}
			desc = trait_lesser_hobgoblin_character_desc
		}
	}
}

#Harimari
harimari = {
	index = 321
	
	martial = 1
	learning = 1
	prowess = 5

	same_opinion = 10
	
	inherit_chance = 100
	both_parent_has_trait_inherit_chance = 100
	physical = yes
	
	birth = 0
	random_creation = 0
	
	icon = {
		first_valid = {
			triggered_desc = {
				trigger = { NOT = { exists = this } }
				desc = whole_of_body.dds
			}
			desc = whole_of_body.dds
		}
	}	
	desc = {
		first_valid = {
			triggered_desc = {
				trigger = {
					NOT = { exists = this }
				}
				desc = trait_harimari_desc
			}
			desc = trait_harimari_character_desc
		}
	}
}

#Centaur
centaur = {
	index = 322
	
	prowess = 7

	same_opinion = 10
	
	inherit_chance = 100
	both_parent_has_trait_inherit_chance = 100
	physical = yes
	
	birth = 0
	random_creation = 0
	
	icon = {
		first_valid = {
			triggered_desc = {
				trigger = { NOT = { exists = this } }
				desc = whole_of_body.dds
			}
			desc = whole_of_body.dds
		}
	}	
	desc = {
		first_valid = {
			triggered_desc = {
				trigger = {
					NOT = { exists = this }
				}
				desc = trait_centaur_desc
			}
			desc = trait_centaur_character_desc
		}
	}
}

#Harpy
harpy = {
	index = 323
	
	fertility = 1	#Since half of pregnancies will end early due to being boys

	same_opinion = 10
	
	inherit_chance = 100
	both_parent_has_trait_inherit_chance = 100
	physical = yes
	
	birth = 0
	random_creation = 0
	
	icon = {
		first_valid = {
			triggered_desc = {
				trigger = { NOT = { exists = this } }
				desc = whole_of_body.dds
			}
			desc = whole_of_body.dds
		}
	}	
	desc = {
		first_valid = {
			triggered_desc = {
				trigger = {
					NOT = { exists = this }
				}
				desc = trait_harpy_desc
			}
			desc = trait_harpy_character_desc
		}
	}
}

########## Magic System Traits ##########

magical_affinity_1 = {
	index = 324

	attraction_opinion = 5
	monthly_magic_lifestyle_xp_gain_mult = 0.1

	birth = 0.1
	random_creation = 0.1

	group = magical_affinity
	level = 1

	genetic = yes
	good = yes
	physical = yes

	# icon = {
	# 	desc = x.dds
	# }

	desc = {
		first_valid = {
			triggered_desc = {
				trigger = {
					NOT = { exists = this }
				}
				desc = trait_magical_affinity_1_desc
			}
			desc = trait_magical_affinity_1_character_desc
		}
	}
}

magical_affinity_2 = {
	index = 325

	attraction_opinion = 15
	monthly_magic_lifestyle_xp_gain_mult = 0.2

	birth = 0.05
	random_creation = 0.05

	group = magical_affinity
	level = 2

	genetic = yes
	good = yes
	physical = yes

	# icon = {
	# 	desc = x.dds
	# }

	desc = {
		first_valid = {
			triggered_desc = {
				trigger = {
					NOT = { exists = this }
				}
				desc = trait_magical_affinity_2_desc
			}
			desc = trait_magical_affinity_2_character_desc
		}
	}
}

magical_affinity_3 = {
	index = 326

	attraction_opinion = 25
	monthly_magic_lifestyle_xp_gain_mult = 0.3 

	birth = 0.01
	random_creation = 0.01

	group = magical_affinity
	level = 3

	genetic = yes
	good = yes
	physical = yes

	# icon = {
	# 	desc = x.dds
	# }

	desc = {
		first_valid = {
			triggered_desc = {
				trigger = {
					NOT = { exists = this }
				}
				desc = trait_magical_affinity_3_desc
			}
			desc = trait_magical_affinity_3_character_desc
		}
	}
}

forbidden_magic_practitioner = {
	index = 327

	dread_baseline_add = 20
	general_opinion = -10				#Feared/Distrusted even when culturally/religiously accepted - Subject to Change
	
	desc = {
		first_valid = {
			triggered_desc = {
				trigger = {
					NOT = { exists = this }
				}
				desc = trait_forbidden_magic_practitioner_desc
			}
			desc = trait_forbidden_magic_practitioner_character_desc
		}
	}

	ai_compassion = very_high_negative_ai_value
	ai_boldness = low_positive_ai_value
	ai_rationality = low_positive_ai_value
	
	triggered_opinion = {
		parameter = witchcraft_illegal
		opinion_modifier = forbidden_magic_crime
		ignore_opinion_value_if_same_trait = yes
	}
	triggered_opinion = {
		parameter = witchcraft_shunned
		opinion_modifier = forbidden_magic_intolerant
		ignore_opinion_value_if_same_trait = yes
	}
}

########## Racial Attitude Traits ##########
elven_purist = {
	index = 400
	flag = racial_purist
	random_creation = 5

	opposites = {
		human
		halfling
		anb_dwarf
		gnome
		half_elf
	}

	opposite_opinion = -15
	same_opinion = 10

	compatibility = {
		elven_purist = @pos_compat_high
		human_purist = @neg_compat_high
		gnomish_purist = @neg_compat_high
		dwarven_purist = @neg_compat_high
		half_elf_purist = @neg_compat_high
		halfling_purist = @neg_compat_high

		elf = @pos_compat_medium
		human = @neg_compat_medium
		gnome = @neg_compat_medium
		dwarf = @neg_compat_medium
		half_elf = @neg_compat_medium
		halfling = @neg_compat_medium
	}
	# icon = {
	# 	first_valid = {
	# 		triggered_desc = {
	# 			trigger = { NOT = { exists = this } }
	# 			desc = X.dds
	# 		}
	# 		desc = X.dds
	# 	}
	# }
	desc = {
		first_valid = {
			triggered_desc = {
				trigger = {
					NOT = { exists = this }
				}
				desc = trait_elven_purist_desc
			}
			desc = trait_elven_purist_character_desc
		}
	}
}

human_purist = {
	index = 401
	flag = racial_purist
	random_creation = 5

	opposites = {
		elf
		halfling
		anb_dwarf
		gnome
		half_elf
	}

	opposite_opinion = -15
	same_opinion = 10

	compatibility = {
		elven_purist = @neg_compat_high
		human_purist = @pos_compat_high
		gnomish_purist = @neg_compat_high
		dwarven_purist = @neg_compat_high
		half_elf_purist = @neg_compat_high
		halfling_purist = @neg_compat_high

		elf = @neg_compat_medium
		human = @pos_compat_medium
		gnome = @neg_compat_medium
		dwarf = @neg_compat_medium
		half_elf = @neg_compat_medium
		halfling = @neg_compat_medium
	}
	# icon = {
	# 	first_valid = {
	# 		triggered_desc = {
	# 			trigger = { NOT = { exists = this } }
	# 			desc = X.dds
	# 		}
	# 		desc = X.dds
	# 	}
	# }	
	desc = {
		first_valid = {
			triggered_desc = {
				trigger = {
					NOT = { exists = this }
				}
				desc = trait_human_purist_desc
			}
			desc = trait_human_purist_character_desc
		}
	}
}

gnomish_purist = {
	index = 402
	flag = racial_purist
	random_creation = 5

	opposites = {
		elf
		halfling
		anb_dwarf
		human
		half_elf
	}

	opposite_opinion = -15
	same_opinion = 10

	compatibility = {
		elven_purist = @neg_compat_high
		human_purist = @neg_compat_high
		gnomish_purist = @pos_compat_high
		dwarven_purist = @neg_compat_high
		half_elf_purist = @neg_compat_high
		halfling_purist = @neg_compat_high

		elf = @neg_compat_medium
		human = @neg_compat_medium
		gnome = @pos_compat_medium
		dwarf = @neg_compat_medium
		half_elf = @neg_compat_medium
		halfling = @neg_compat_medium
	}
	# icon = {
	# 	first_valid = {
	# 		triggered_desc = {
	# 			trigger = { NOT = { exists = this } }
	# 			desc = X.dds
	# 		}
	# 		desc = X.dds
	# 	}
	# }	
	desc = {
		first_valid = {
			triggered_desc = {
				trigger = {
					NOT = { exists = this }
				}
				desc = trait_gnomish_purist_desc
			}
			desc = trait_gnomish_purist_character_desc
		}
	}
}

dwarven_purist = {
	index = 403
	flag = racial_purist
	random_creation = 5

	opposites = {
		elf
		halfling
		human
		gnome
		half_elf
	}

	opposite_opinion = -15
	same_opinion = 10

	compatibility = {
		elven_purist = @neg_compat_high
		human_purist = @neg_compat_high
		gnomish_purist = @neg_compat_high
		dwarven_purist = @pos_compat_high
		half_elf_purist = @neg_compat_high
		halfling_purist = @neg_compat_high

		elf = @neg_compat_medium
		human = @neg_compat_medium
		gnome = @neg_compat_medium
		dwarf = @pos_compat_medium
		half_elf = @neg_compat_medium
		halfling = @neg_compat_medium
	}
	# icon = {
	# 	first_valid = {
	# 		triggered_desc = {
	# 			trigger = { NOT = { exists = this } }
	# 			desc = X.dds
	# 		}
	# 		desc = X.dds
	# 	}
	# }	
	desc = {
		first_valid = {
			triggered_desc = {
				trigger = {
					NOT = { exists = this }
				}
				desc = trait_dwarven_purist_desc
			}
			desc = trait_dwarven_purist_character_desc
		}
	}
}

half_elf_purist = {
	index = 405
	flag = racial_purist
	random_creation = 5

	opposites = {
		elf
		halfling
		anb_dwarf
		gnome
		human
	}

	opposite_opinion = -15
	same_opinion = 10

	compatibility = {
		elven_purist = @neg_compat_high
		human_purist = @neg_compat_high
		gnomish_purist = @neg_compat_high
		dwarven_purist = @neg_compat_high
		half_elf_purist = @pos_compat_high
		halfling_purist = @neg_compat_high

		elf = @neg_compat_medium
		human = @neg_compat_medium
		gnome = @neg_compat_medium
		dwarf = @neg_compat_medium
		half_elf = @pos_compat_medium
		halfling = @neg_compat_medium
	}
	# icon = {
	# 	first_valid = {
	# 		triggered_desc = {
	# 			trigger = { NOT = { exists = this } }
	# 			desc = X.dds
	# 		}
	# 		desc = X.dds
	# 	}
	# }	
	desc = {
		first_valid = {
			triggered_desc = {
				trigger = {
					NOT = { exists = this }
				}
				desc = trait_half_elf_purist_desc
			}
			desc = trait_half_elf_purist_character_desc
		}
	}
}

halfling_purist = {
	index = 406
	flag = racial_purist
	random_creation = 5

	opposites = {
		elf
		anb_dwarf
		gnome
		half_elf
		human
	}

	opposite_opinion = -15
	same_opinion = 10

	compatibility = {
		elven_purist = @neg_compat_high
		human_purist = @neg_compat_high
		gnomish_purist = @neg_compat_high
		dwarven_purist = @neg_compat_high
		half_elf_purist = @neg_compat_high
		halfling_purist = @pos_compat_high

		elf = @neg_compat_medium
		human = @neg_compat_medium
		gnome = @neg_compat_medium
		dwarf = @neg_compat_medium
		half_elf = @neg_compat_medium
		halfling = @pos_compat_medium
	}
	# icon = {
	# 	first_valid = {
	# 		triggered_desc = {
	# 			trigger = { NOT = { exists = this } }
	# 			desc = X.dds
	# 		}
	# 		desc = X.dds
	# 	}
	# }	
	desc = {
		first_valid = {
			triggered_desc = {
				trigger = {
					NOT = { exists = this }
				}
				desc = trait_halfling_purist_desc
			}
			desc = trait_halfling_purist_character_desc
		}
	}
}