150 = {

    # Misc
    culture = gawedi
    religion = cult_of_the_dame

    # History
}

211 = {

    # Misc
    culture = gawedi
    religion = cult_of_the_dame

    # History
}

212 = {

    # Misc
    culture = gawedi
    religion = cult_of_the_dame

    # History
}

213 = {

    # Misc
    culture = gawedi
    religion = cult_of_the_dame

    # History
}

214 = {

    # Misc
    culture = vertesker
    religion = cult_of_the_dame

    # History
}

215 = {

    # Misc
    culture = vertesker
    religion = cult_of_the_dame

    # History
}

336 = {

    # Misc
    culture = gawedi
    religion = cult_of_the_dame

    # History
}