381 = {

    # Misc
    culture = desha
    religion = cult_of_the_dame
	holding = castle_holding

    # History
}

382 = {

    # Misc
    culture = desha
    religion = cult_of_the_dame
	holding = castle_holding

    # History
}

397 = {

    # Misc
    culture = desha
    religion = cult_of_the_dame
	holding = castle_holding

    # History
}

399 = {

    # Misc
    culture = desha
    religion = cult_of_the_dame
	holding = castle_holding

    # History
}

403 = {

    # Misc
    culture = desha
    religion = cult_of_the_dame
	holding = castle_holding

    # History
}

404 = {

    # Misc
    culture = desha
    religion = cult_of_the_dame
	holding = castle_holding

    # History
}

405 = {

    # Misc
    culture = desha
    religion = cult_of_the_dame
	holding = castle_holding

    # History
}

453 = {

    # Misc
    culture = desha
    religion = cult_of_the_dame
	holding = castle_holding

    # History
}

458 = {

    # Misc
    culture = desha
    religion = cult_of_the_dame
	holding = castle_holding

    # History
}