593 = {

    # Misc
    culture = brasanni
    religion = cult_of_the_dame

    # History
}

594 = {

    # Misc
    culture = brasanni
    religion = cult_of_the_dame

    # History
}

595 = {

    # Misc
    culture = sun_elvish
    religion = cult_of_the_dame

    # History
}

559 = {

    # Misc
    culture = brasanni
    religion = cult_of_the_dame

    # History
}

560 = {

    # Misc
    culture = brasanni
    religion = cult_of_the_dame

    # History
}

586 = {

    # Misc
    culture = brasanni
    religion = cult_of_the_dame

    # History
}

588 = {

    # Misc
    culture = brasanni
    religion = cult_of_the_dame

    # History
}