﻿



accessory_genes = {




#####################################
#									#
# 			  BEARDS 				#
#									#
#####################################


	
	beards = {
		sync_inheritance_with = hairstyles
		index = 100
		inheritable = yes

		no_beard = {
			index = 0

			male = {
				1 = empty
			}
			female = {
				1 = empty
			}
		}	

		all_beards = {
			index = 1
			male = {
				1 = empty
				1 = male_beard_western_01
				1 = male_beard_western_02
				1 = male_beard_western_03
				1 = male_beard_western_04
				1 = male_beard_western_05
				1 = male_beard_western_06
				1 = male_beard_western_07
				1 = male_beard_western_08
				1 = male_beard_western_09
				1 = male_beard_mena_01
				1 = male_beard_mena_02
				1 = male_beard_mena_03
				1 = male_beard_mena_04
				1 = male_beard_northern_01
				1 = male_beard_northern_02
				1 = male_beard_northern_03
				1 = male_beard_steppe_01
				1 = male_beard_steppe_02
				1 = male_beard_sub_saharan_01
				1 = male_beard_sub_saharan_02
				1 = male_beard_sub_saharan_03		
				1 = male_beard_indian_01
				1 = male_beard_indian_02
				1 = male_beard_indian_03
			}
			female = {
				1 = empty
			}
		}	

		western_beards = {
			index = 2

			male = {
				# 30 = empty
				20 = male_beard_western_01
				10 = male_beard_western_02
				10 = male_beard_western_03
				5 = male_beard_western_04
				5 = male_beard_western_05
				20 = male_beard_western_06
				10 = male_beard_western_07
				10 = male_beard_western_08
				5 = male_beard_western_09
				#5 = male_beard_western_10
			}
			female = {
				1 = empty
			}
		}	

		rtt_beards = {
			index = 3

			male = {
				1 = male_beard_rtt_01
			}
			female = {
				1 = empty
			}
		}
	

		mena_beards = {
			index = 4

			male = {
				# 0 = empty
				5 = male_beard_western_01
				5 = male_beard_western_02
				5 = male_beard_western_03
				# 5 = male_beard_western_04
				20 = male_beard_mena_01
				20 = male_beard_mena_02
				20 = male_beard_mena_03
				20 = male_beard_mena_04
				
			}
			female = {
				1 = empty
			}
		}	


		northern_beards = {
			index = 5

			male = {
				# 10 = empty
				5 = male_beard_western_01
				5 = male_beard_western_02
				5 = male_beard_western_03
				5 = male_beard_western_04
				5 = male_beard_western_06
				20 = male_beard_northern_01
				20 = male_beard_northern_02
				20 = male_beard_northern_03
							
			}
			female = {
				1 = empty
			}
		}

		steppe_beards = {
			index = 6

			male = {
				# 5 = empty
				10 = male_beard_steppe_01
				10 = male_beard_steppe_02
				
			}
			female = {
				1 = empty
			}
		}

		sub_saharan_beards = {
			index = 7
			set_tags = "very_curly_hair"
			male = {
				# 30 = empty
				20 = male_beard_sub_saharan_01
				20 = male_beard_sub_saharan_02
				10 = male_beard_sub_saharan_03			
				
			}
			female = {
				1 = empty
			}
		}

		indian_beards = {
			index = 8

			male = {
				# 5 = empty
				20 = male_beard_indian_01
				10 = male_beard_indian_02
				10 = male_beard_indian_03
							
			}
			female = {
				1 = empty
			}
		}
		
		dwarven_beards = {
			index = 9
			
			male = {
				20 = male_beard_rtt_01
				5 = male_beard_western_06
				10 = male_beard_mena_02
				5 = male_beard_northern_01
				10 = male_beard_northern_02
				10 = male_beard_northern_03
				10 = male_beard_indian_03
			}
				
			female = {
				1 = empty
			}
		}
		
		vernman_beards = {
			index = 10
			
			male = {
				20 = male_beard_indian_01
				10 = male_beard_steppe_01
				10 = male_beard_mena_04
				10 = male_beard_western_08
				10 = male_beard_western_05
			}
			
			female = {
				1 = empty
			}
		}
	}

}